{
    "app-id": "org.gnome.Mockup",
    "runtime": "org.gnome.Platform",
    "runtime-version": "3.32",
    "sdk": "org.gnome.Sdk",
    "command": "mockup",
    "finish-args": [
        "--share=network",
        "--share=ipc",
        "--socket=x11",
        "--socket=wayland",
        "--filesystem=xdg-run/dconf",
        "--filesystem=~/.config/dconf:ro",
        "--talk-name=ca.desrt.dconf",
        "--env=DCONF_USER_CONFIG_DIR=.config/dconf"
    ],
    "build-options": {
        "cflags": "-O2 -g",
        "cxxflags": "-O2 -g",
        "env": {
            "V": "1"
        }
    },
    "cleanup": [
        "/include",
        "/lib/pkgconfig",
        "/man",
        "/share/doc",
        "/share/gtk-doc",
        "/share/man",
        "/share/pkgconfig",
        "/share/vala",
        "*.la",
        "*.a"
    ],
    "modules": [
        {
            "name": "mockup",
            "buildsystem": "meson",
            "config-opts": [ "--libdir=lib" ],
            "builddir": true,
            "sources": [
                {
                    "type": "git",
                    "url": "https://gitlab.gnome.org/exalm/phone-mockup.git"
                }
            ]
        }
    ]
}
